<?xml version="1.0" encoding="UTF-8" standalone="no"?>
<svg width="32px" height="32px" viewBox="0 0 32 32" version="1.1" xmlns="http://www.w3.org/2000/svg" xmlns:xlink="http://www.w3.org/1999/xlink">
    <!-- Generator: Sketch 42 (36781) - http://www.bohemiancoding.com/sketch -->
    <title>ni-shopping-bag-line copy 6</title>
    <desc>Created with Sketch.</desc>
    <defs></defs>
    <g id="Page-1" stroke="none" stroke-width="1" fill="none" fill-rule="evenodd">
        <g id="10" transform="translate(-328.000000, -13.000000)" fill="#222222">
            <g id="Header">
                <g id="ni-shopping-bag-line-copy-6" transform="translate(328.000000, 13.000000)">
                    <g id="ni-shopping-bag-line-copy-3">
                        <g id="Group">
                            <polygon id="Shape" points="26 6 26 7 31 7 31 31 1 31 1 7 6 7 6 6 0 6 0 32 32 32 32 6"></polygon>
                            <rect id="Rectangle-path" x="11" y="6" width="10" height="1"></rect>
                            <path d="M9,8 C9,4.14 12.14,1 16,1 C19.86,1 23,4.14 23,8 L23,9 L24,9 L24,8 C24,3.582 20.418,0 16,0 C11.582,0 8,3.582 8,8 L8,9 L9,9 L9,8 L9,8 Z" id="Shape"></path>
                        </g>
                    </g>
                </g>
            </g>
        </g>
    </g>
</svg>