<?xml version="1.0" encoding="UTF-8" standalone="no"?>
<svg width="32px" height="32px" viewBox="0 0 32 32" version="1.1" xmlns="http://www.w3.org/2000/svg" xmlns:xlink="http://www.w3.org/1999/xlink">
    <!-- Generator: Sketch 42 (36781) - http://www.bohemiancoding.com/sketch -->
    <title>Group</title>
    <desc>Created with Sketch.</desc>
    <defs></defs>
    <g id="Page-1" stroke="none" stroke-width="1" fill="none" fill-rule="evenodd">
        <g id="10" transform="translate(-273.000000, -14.000000)" fill="#ffffff">
            <g id="Header">
                <g id="Group" transform="translate(273.000000, 14.000000)">
                    <path d="M15.5151515,0.965818182 C6.94593939,0.965818182 0,7.91175758 0,16.4809697 C0,20.6652121 1.664,24.4557576 4.35781818,27.2465455 L4.37721212,27.2901818 C4.37915152,27.2853333 4.38109091,27.2795152 4.3830303,27.2746667 C7.20290909,30.1827879 11.1447273,31.9970909 15.5151515,31.9970909 C24.0843636,31.9970909 31.030303,25.0511515 31.030303,16.4819394 C31.030303,7.91272727 24.0843636,0.965818182 15.5151515,0.965818182 L15.5151515,0.965818182 Z M15.5151515,1.93551515 C23.5355152,1.93551515 30.0606061,8.46060606 30.0606061,16.4809697 C30.0606061,19.8749091 28.8833939,22.9924848 26.9284848,25.4700606 C26.5018182,24.3035152 25.5864242,22.2215758 25.1869091,21.9898182 C23.5869091,21.0637576 21.8404848,20.3675152 19.9951515,19.926303 C18.9275152,20.7835152 17.3178182,21.3294545 15.5161212,21.3294545 C13.7144242,21.3294545 12.1047273,20.7835152 11.0370909,19.926303 C9.19175758,20.3675152 7.44533333,21.0637576 5.84533333,21.9898182 C5.44581818,22.2215758 4.52945455,24.3035152 4.10375758,25.4700606 C2.14690909,22.9924848 0.96969697,19.8749091 0.96969697,16.4809697 C0.96969697,8.46060606 7.49478788,1.93551515 15.5151515,1.93551515 L15.5151515,1.93551515 Z M15.5151515,31.0264242 C11.2620606,31.0264242 7.44145455,29.1801212 4.77963636,26.2603636 C5.3129697,24.9745455 6.15272727,23.1127273 6.41454545,22.7801212 C7.78957576,21.993697 9.27321212,21.3886061 10.8305455,20.9774545 C12.0814545,21.8220606 13.7580606,22.2991515 15.5151515,22.2991515 C17.2722424,22.2991515 18.9488485,21.8220606 20.1997576,20.9774545 C21.7570909,21.3886061 23.2397576,21.993697 24.6157576,22.7801212 C24.9231515,23.1709091 25.7997576,25.2150303 26.2138182,26.3020606 C23.5529697,29.1975758 19.7478788,31.0264242 15.5151515,31.0264242 L15.5151515,31.0264242 Z" id="Shape"></path>
                    <path d="M15.5151515,18.4281212 C18.4610909,18.4281212 20.3791515,15.36 20.8484848,11.6402424 C21.3333333,7.80218182 18.889697,4.85236364 15.5151515,4.85236364 C12.201697,4.85236364 9.73769697,7.80218182 10.1818182,11.6402424 C10.6133333,15.3638788 12.5692121,18.4281212 15.5151515,18.4281212 L15.5151515,18.4281212 Z M12.3471515,7.23393939 C13.1587879,6.32339394 14.2836364,5.82206061 15.5151515,5.82206061 C16.7796364,5.82206061 17.9238788,6.32921212 18.7345455,7.24848485 C19.6887273,8.33066667 20.0979394,9.84727273 19.8865455,11.5180606 C19.5132121,14.4746667 18.0169697,17.4574545 15.5151515,17.4574545 C12.9706667,17.4574545 11.4870303,14.4795152 11.1447273,11.5277576 C10.9507879,9.84824242 11.3774545,8.32290909 12.3471515,7.23393939 L12.3471515,7.23393939 Z" id="Shape"></path>
                </g>
            </g>
        </g>
    </g>
</svg>