<?xml version="1.0" encoding="UTF-8" standalone="no"?>
<svg width="24px" height="19px" viewBox="0 0 24 19" version="1.1" xmlns="http://www.w3.org/2000/svg" xmlns:xlink="http://www.w3.org/1999/xlink">
    <!-- Generator: Sketch 41.2 (35397) - http://www.bohemiancoding.com/sketch -->
    <title>Icons/Menu</title>
    <desc>Created with Sketch.</desc>
    <defs></defs>
    <g id="Symbols" stroke="none" stroke-width="1" fill="none" fill-rule="evenodd">
        <g id="Icons/Menu" fill="#ffffff">
            <g id="Menu">
                <rect id="Rectangle-19" x="0" y="0" width="24" height="1"></rect>
                <rect id="Rectangle-19-Copy" x="0" y="9" width="24" height="1"></rect>
                <rect id="Rectangle-19-Copy-2" x="0" y="18" width="24" height="1"></rect>
            </g>
        </g>
    </g>
</svg>