<?xml version="1.0" encoding="UTF-8" standalone="no"?>
<svg width="24px" height="19px" viewBox="0 0 24 19" version="1.1" xmlns="http://www.w3.org/2000/svg" xmlns:xlink="http://www.w3.org/1999/xlink">
    <!-- Generator: Sketch 40.3 (33839) - http://www.bohemiancoding.com/sketch -->
    <title>Menu@2x</title>
    <desc>Created with Sketch.</desc>
    <defs></defs>
    <g id="Designs-Archive" stroke="none" stroke-width="1" fill="none" fill-rule="evenodd" stroke-linecap="square">
        <g id="01" transform="translate(-21.000000, -23.000000)" stroke="#ffffff" stroke-width="0.75">
            <g id="Group">
                <g id="Header">
                    <g id="Hamburger" transform="translate(12.000000, 12.000000)">
                        <g id="Menu" transform="translate(9.000000, 10.000000)">
                            <path d="M0.5,13.375 L16.5,13.375" id="Line"></path>
                            <path d="M0.5,19.375 L23.5,19.375" id="Line"></path>
                            <path d="M0.5,7.5 L23.5,7.5" id="Path"></path>
                            <path d="M0.5,1.5 L16.5,1.5" id="Path"></path>
                        </g>
                    </g>
                </g>
            </g>
        </g>
    </g>
</svg>