<?xml version="1.0" encoding="UTF-8" standalone="no"?>
<svg width="16px" height="16px" viewBox="0 0 16 16" version="1.1" xmlns="http://www.w3.org/2000/svg" xmlns:xlink="http://www.w3.org/1999/xlink">
    <!-- Generator: Sketch 40.3 (33839) - http://www.bohemiancoding.com/sketch -->
    <title>Group 3</title>
    <desc>Created with Sketch.</desc>
    <defs>
        <circle id="path-1" cx="8" cy="8" r="8"></circle>
        <mask id="mask-2" maskContentUnits="userSpaceOnUse" maskUnits="objectBoundingBox" x="0" y="0" width="16" height="16" fill="white">
            <use xlink:href="#path-1"></use>
        </mask>
    </defs>
    <g id="Sprint-02-Archive" stroke="none" stroke-width="1" fill="none" fill-rule="evenodd">
        <g id="15-XS-Search---Filters---Full-View" transform="translate(-16.000000, -2725.000000)">
            <g id="Group-2" transform="translate(16.000000, 2725.000000)">
                <g id="Group-3">
                    <use id="Oval-3" stroke="#222222" mask="url(#mask-2)" stroke-width="2" fill="#FFFFFF" xlink:href="#path-1"></use>
                    <circle id="Oval-3" fill="#222222" cx="8" cy="8" r="2"></circle>
                </g>
            </g>
        </g>
    </g>
</svg>