<?xml version="1.0" encoding="UTF-8" standalone="no"?>
<svg width="24px" height="24px" viewBox="0 0 24 24" version="1.1" xmlns="http://www.w3.org/2000/svg" xmlns:xlink="http://www.w3.org/1999/xlink">
    <!-- Generator: Sketch 40.3 (33839) - http://www.bohemiancoding.com/sketch -->
    <title>Magnify Icon@2x</title>
    <desc>Created with Sketch.</desc>
    <defs></defs>
    <g id="Page-1" stroke="none" stroke-width="1" fill="none" fill-rule="evenodd">
        <g id="Product_Page_Mobile_01" transform="translate(-9.000000, -594.000000)">
            <g id="Product-Image" transform="translate(0.000000, 66.000000)">
                <g id="Magnify-Icon" transform="translate(9.000000, 528.000000)">
                    <path d="M0,9.75 C0,15.135 4.365,19.5 9.75,19.5 C12.31125,19.5 14.634,18.50475 16.374,16.89 L23.484,24 L24,23.484 L16.89,16.374 C18.50475,14.634 19.5,12.31125 19.5,9.75 C19.5,4.365 15.135,0 9.75,0 C4.365,0 0,4.365 0,9.75 L0,9.75 Z M0.75,9.75 C0.75,4.78725 4.78725,0.75 9.75,0.75 C14.71275,0.75 18.75,4.78725 18.75,9.75 C18.75,14.71275 14.71275,18.75 9.75,18.75 C4.78725,18.75 0.75,14.71275 0.75,9.75 L0.75,9.75 Z" id="Search" fill="#222222"></path>
                    <g id="Plus" transform="translate(4.000000, 4.000000)" fill="#111111">
                        <rect id="Rectangle-6" x="5.64705882" y="0" width="0.705882353" height="11.2941176"></rect>
                        <rect id="Rectangle-6" transform="translate(6.000000, 5.500000) rotate(-90.000000) translate(-6.000000, -5.500000) " x="5.5" y="-0.147058824" width="0.705882353" height="11.2941176"></rect>
                    </g>
                </g>
            </g>
        </g>
    </g>
</svg>