<?xml version="1.0" encoding="UTF-8" standalone="no"?>
<svg width="16px" height="16px" viewBox="0 0 16 16" version="1.1" xmlns="http://www.w3.org/2000/svg" xmlns:xlink="http://www.w3.org/1999/xlink">
    <!-- Generator: Sketch 40.3 (33839) - http://www.bohemiancoding.com/sketch -->
    <title>Clear</title>
    <desc>Created with Sketch.</desc>
    <defs></defs>
    <g id="Designs" stroke="none" stroke-width="1" fill="none" fill-rule="evenodd">
        <g id="05---Search-1" transform="translate(-251.000000, -83.000000)" fill="#D6D6D6">
            <g id="Search" transform="translate(0.000000, 67.000000)">
                <g id="Clear" transform="translate(251.000000, 16.000000)">
                    <path d="M7.97573887,6.97260799 L5.80727808,4.8041472 L4.86446904,5.74695624 L7.03292983,7.91541704 L4.86446904,10.0838778 L5.80727808,11.0266869 L7.97573887,8.85822608 L10.1441997,11.0266869 L11.0870087,10.0838778 L8.91854791,7.91541704 L11.0870087,5.74695624 L10.1441997,4.8041472 L7.97573887,6.97260799 Z M8,16 C12.418278,16 16,12.418278 16,8 C16,3.581722 12.418278,0 8,0 C3.581722,0 0,3.581722 0,8 C0,12.418278 3.581722,16 8,16 Z" id="Oval-30"></path>
                </g>
            </g>
        </g>
    </g>
</svg>