<?xml version="1.0" encoding="UTF-8" standalone="no"?>
<svg width="16px" height="16px" viewBox="0 0 16 16" version="1.1" xmlns="http://www.w3.org/2000/svg" xmlns:xlink="http://www.w3.org/1999/xlink">
    <!-- Generator: Sketch 40.3 (33839) - http://www.bohemiancoding.com/sketch -->
    <title>Close</title>
    <desc>Created with Sketch.</desc>
    <defs></defs>
    <g id="Designs-Archive" stroke="none" stroke-width="1" fill="none" fill-rule="evenodd">
        <g id="02" transform="translate(-25.000000, -24.000000)" fill="#ffffff">
            <g id="Header">
                <polygon id="Close" points="41 39.5294118 33.4705882 32 41 24.4705882 40.5294118 24 33 31.5294118 25.4705882 24 25 24.4705882 32.5294118 32 25 39.5294118 25.4705882 40 33 32.4705882 40.5294118 40"></polygon>
            </g>
        </g>
    </g>
</svg>