<?xml version="1.0" encoding="UTF-8" standalone="no"?>
<svg width="48px" height="48px" viewBox="0 0 48 48" version="1.1" xmlns="http://www.w3.org/2000/svg" xmlns:xlink="http://www.w3.org/1999/xlink">
    <!-- Generator: Sketch 41.2 (35397) - http://www.bohemiancoding.com/sketch -->
    <title>Icons/Plus</title>
    <desc>Created with Sketch.</desc>
    <defs></defs>
    <g id="Symbols" stroke="none" stroke-width="1" fill="none" fill-rule="evenodd">
        <g id="Icons/Plus" fill="#111111">
            <g id="Plus" transform="translate(16.000000, 16.000000)">
                <rect id="Rectangle-6" x="8" y="0" width="1" height="16"></rect>
                <rect id="Rectangle-6" transform="translate(8.500000, 8.000000) rotate(-90.000000) translate(-8.500000, -8.000000) " x="8" y="0" width="1" height="16"></rect>
            </g>
        </g>
    </g>
</svg>