<?xml version="1.0" encoding="UTF-8" standalone="no"?>
<svg width="89px" height="16px" viewBox="0 0 89 16" version="1.1" xmlns="http://www.w3.org/2000/svg" xmlns:xlink="http://www.w3.org/1999/xlink">
    <!-- Generator: Sketch 40.3 (33839) - http://www.bohemiancoding.com/sketch -->
    <title>Reviews</title>
    <desc>Created with Sketch.</desc>
    <defs></defs>
    <g id="Designs" stroke="none" stroke-width="1" fill="none" fill-rule="evenodd">
        <g id="15" transform="translate(-113.000000, -2341.000000)">
            <g id="Reviews" transform="translate(113.000000, 2341.000000)">
                <g id="ni-review-32" fill="#FFC51E">
                    <polygon id="Shape" points="3.0535 15.205 7.994 11.616 12.9345 15.205 11.047 9.4935 15.9875 6 9.881 6 7.994 0.192 6.1065 6 0 6 4.9405 9.4935"></polygon>
                </g>
                <g id="ni-review-32-copy" transform="translate(18.133333, 0.000000)" fill="#FFC51E">
                    <polygon id="Shape" points="3.0535 15.205 7.994 11.616 12.9345 15.205 11.047 9.4935 15.9875 6 9.881 6 7.994 0.192 6.1065 6 0 6 4.9405 9.4935"></polygon>
                </g>
                <g id="ni-review-32-copy-2" transform="translate(36.266667, 0.000000)" fill="#FFC51E">
                    <polygon id="Shape" points="3.0535 15.205 7.994 11.616 12.9345 15.205 11.047 9.4935 15.9875 6 9.881 6 7.994 0.192 6.1065 6 0 6 4.9405 9.4935"></polygon>
                </g>
                <g id="ni-review-32-copy-3" transform="translate(54.400000, 0.000000)" fill="#FFC51E">
                    <polygon id="Shape" points="3.0535 15.205 7.994 11.616 12.9345 15.205 11.047 9.4935 15.9875 6 9.881 6 7.994 0.192 6.1065 6 0 6 4.9405 9.4935"></polygon>
                </g>
                <g id="ni-review-32-copy-4" transform="translate(72.533333, 0.000000)" fill="#E6E6E6">
                    <polygon id="Shape" points="3.0535 15.205 7.994 11.616 12.9345 15.205 11.047 9.4935 15.9875 6 9.881 6 7.994 0.192 6.1065 6 0 6 4.9405 9.4935"></polygon>
                </g>
            </g>
        </g>
    </g>
</svg>